M48
;DRILL file {KiCad 5.0.0-4.fc30} date Mon Oct 15 14:27:17 2018
;FORMAT={-:-/ absolute / inch / decimal}
FMAT,2
INCH,TZ
T1C0.0394
%
G90
G05
M72
T1
X5.6Y-3.
X5.6Y-3.1
X5.6Y-3.2
X6.1Y-3.
X6.1Y-3.1
X6.1Y-3.2
T0
M30
