G04 #@! TF.GenerationSoftware,KiCad,Pcbnew,5.0.0-fee4fd1~66~ubuntu18.04.1*
G04 #@! TF.CreationDate,2018-10-22T14:00:07-04:00*
G04 #@! TF.ProjectId,QFN-20-CC1101,51464E2D32302D4343313130312E6B69,rev?*
G04 #@! TF.SameCoordinates,Original*
G04 #@! TF.FileFunction,Profile,NP*
%FSLAX46Y46*%
G04 Gerber Fmt 4.6, Leading zero omitted, Abs format (unit mm)*
G04 Created by KiCad (PCBNEW 5.0.0-fee4fd1~66~ubuntu18.04.1) date Mon Oct 22 14:00:07 2018*
%MOMM*%
%LPD*%
G01*
G04 APERTURE LIST*
%ADD10C,0.150000*%
G04 APERTURE END LIST*
D10*
X127000000Y-83820000D02*
X127000000Y-55880000D01*
X147320000Y-83820000D02*
X127000000Y-83820000D01*
X147320000Y-55880000D02*
X147320000Y-83820000D01*
X127000000Y-55880000D02*
X147320000Y-55880000D01*
M02*
