M48
;DRILL file {KiCad 5.0.0-4.fc30} date Mon Oct 15 14:17:51 2018
;FORMAT={-:-/ absolute / inch / decimal}
FMAT,2
INCH,TZ
T1C0.0394
%
G90
G05
M72
T1
X5.6Y-3.3
X5.6Y-3.4
X5.6Y-3.5
X6.2Y-3.3
X6.2Y-3.4
X6.2Y-3.5
T0
M30
